<svg width="82" height="82" viewBox="0 0 82 82" fill="none" xmlns="http://www.w3.org/2000/svg">
<path d="M41.1315 81.7337C63.7016 81.7337 81.9984 63.437 81.9984 40.8669C81.9984 18.2967 63.7016 0 41.1315 0C18.5614 0 0.264648 18.2967 0.264648 40.8669C0.264648 63.437 18.5614 81.7337 41.1315 81.7337Z" fill="white"/>
<path d="M81.2553 34.8067C80.5615 30.0627 79.0283 25.4802 76.7276 21.2739C73.0291 14.5112 67.4946 8.93137 60.7623 5.17776C54.03 1.42415 46.3739 -0.350431 38.6767 0.0586138C30.9796 0.467659 23.5547 3.04367 17.2581 7.48966C10.9615 11.9357 6.04965 18.0706 3.08869 25.1873C2.19148 27.3538 1.48522 29.5946 0.977977 31.884C-0.325696 37.7341 -0.325996 43.7994 0.9771 49.6497C2.2802 55.4999 4.85475 60.9917 8.51813 65.7354C12.1815 70.4791 16.8439 74.3586 22.1746 77.0984C27.5053 79.8383 33.3736 81.3716 39.3632 81.5894C45.3529 81.8072 51.3171 80.7042 56.8327 78.3587C62.3483 76.0132 67.2801 72.4826 71.2783 68.0175C75.2766 63.5523 78.2432 58.262 79.9677 52.5219C81.6923 46.7817 82.1324 40.7324 81.2571 34.8031L81.2553 34.8067ZM40.8461 81.332C32.8277 81.3373 24.988 78.964 18.3188 74.5125C11.6496 70.061 6.45068 63.7314 3.37977 56.3244C0.308863 48.9174 -0.495997 40.766 1.06702 32.9015C2.63003 25.0369 6.49069 17.8127 12.1605 12.1429C17.8303 6.4731 25.0545 2.61245 32.919 1.04943C40.7836 -0.513583 48.935 0.291276 56.342 3.36218C63.749 6.43309 70.0786 11.632 74.5301 18.3012C78.9816 24.9704 81.3548 32.8101 81.3496 40.8285C81.3371 51.5667 77.0657 61.8616 69.4725 69.4545C61.8793 77.0475 51.5843 81.3186 40.8461 81.3307V81.332Z" fill="#3F3D56"/>
<path d="M25.1685 38.3499C23.0922 38.3496 21.0804 37.6285 19.4767 36.3098C17.8729 34.991 16.7767 33.1565 16.3752 31.1194C15.9738 29.0822 16.2919 26.9689 17.2754 25.1403C18.2589 23.3117 19.8467 21.8812 21.7676 21.0931C23.6885 20.3051 25.8235 20.2083 27.8078 20.8193C29.7922 21.4304 31.5029 22.7113 32.6477 24.4435C33.7926 26.1756 34.3007 28.2515 34.0852 30.3166C33.8697 32.3817 32.9439 34.3079 31.4661 35.7663C29.7883 37.4221 27.5258 38.3503 25.1685 38.3499ZM25.1685 20.7785C23.4661 20.7783 21.8019 21.283 20.3863 22.2287C18.9708 23.1743 17.8674 24.5186 17.2158 26.0913C16.5642 27.6641 16.3937 29.3948 16.7257 31.0645C17.0578 32.7342 17.8775 34.2679 19.0813 35.4717C20.285 36.6755 21.8187 37.4953 23.4884 37.8275C25.1581 38.1596 26.8888 37.9891 28.4616 37.3376C30.0344 36.6861 31.3786 35.5829 32.3244 34.1673C33.2701 32.7518 33.7749 31.0876 33.7748 29.3852C33.7747 27.1027 32.8679 24.9137 31.254 23.2996C29.64 21.6856 27.4511 20.7787 25.1685 20.7785Z" fill="#3F3D56"/>
<path d="M52.781 38.3497C51.0079 38.3497 49.2746 37.8239 47.8003 36.8388C46.326 35.8537 45.1769 34.4535 44.4983 32.8153C43.8198 31.1772 43.6423 29.3746 43.9882 27.6355C44.3341 25.8965 45.1879 24.299 46.4417 23.0453C47.6955 21.7915 49.293 20.9376 51.032 20.5917C52.7711 20.2458 54.5737 20.4233 56.2118 21.1019C57.85 21.7804 59.2501 22.9295 60.2352 24.4038C61.2203 25.8781 61.7461 27.6114 61.7461 29.3846C61.7461 30.5619 61.5143 31.7277 61.0637 32.8153C60.6132 33.903 59.9528 34.8914 59.1203 35.7238C58.2878 36.5563 57.2995 37.2167 56.2118 37.6672C55.1241 38.1178 53.9583 38.3497 52.781 38.3497ZM52.781 20.7783C51.0789 20.7783 49.4149 21.283 47.9996 22.2287C46.5843 23.1744 45.4813 24.5185 44.8299 26.0911C44.1785 27.6637 44.008 29.3941 44.3401 31.0636C44.6722 32.733 45.4919 34.2665 46.6955 35.4701C47.8991 36.6737 49.4326 37.4934 51.102 37.8255C52.7715 38.1575 54.5019 37.9871 56.0745 37.3357C57.6471 36.6843 58.9912 35.5812 59.9369 34.166C60.8826 32.7507 61.3873 31.0867 61.3873 29.3846C61.3872 27.1021 60.4804 24.9132 58.8664 23.2993C57.2525 21.6854 55.0635 20.7787 52.781 20.7787V20.7783Z" fill="#3F3D56"/>
<path d="M31.3397 35.6391C29.6952 37.2613 27.4781 38.1708 25.1681 38.1708C22.8582 38.1708 20.6411 37.2613 18.9966 35.6391C19.5462 34.4663 20.4186 33.4745 21.5116 32.7797C22.6046 32.0849 23.873 31.7158 25.1681 31.7158C26.4633 31.7158 27.7317 32.0849 28.8247 32.7797C29.9177 33.4745 30.7901 34.4663 31.3397 35.6391Z" fill="#3F3D56"/>
<path d="M58.9525 35.6391C57.308 37.2614 55.0909 38.171 52.7809 38.171C50.4709 38.171 48.2538 37.2614 46.6094 35.6391C47.159 34.4663 48.0314 33.4745 49.1244 32.7797C50.2174 32.0849 51.4858 31.7158 52.7809 31.7158C54.0761 31.7158 55.3444 32.0849 56.4374 32.7797C57.5304 33.4745 58.4029 34.4663 58.9525 35.6391Z" fill="#3F3D56"/>
<path d="M33.2368 44.0876C33.2368 43.0974 36.4478 42.2944 40.4087 42.2944C44.3697 42.2944 47.5806 43.0974 47.5806 44.0876C47.5806 45.0779 44.3697 48.7496 40.4087 48.7496C36.4478 48.7496 33.2368 45.0788 33.2368 44.0876Z" fill="#3F3D56"/>
<path d="M16.4723 43.8181C18.1556 43.8181 19.5202 42.4535 19.5202 40.7701C19.5202 39.0868 18.1556 37.7222 16.4723 37.7222C14.7889 37.7222 13.4243 39.0868 13.4243 40.7701C13.4243 42.4535 14.7889 43.8181 16.4723 43.8181Z" fill="#FF6584"/>
<path d="M61.5665 43.9074C63.2498 43.9074 64.6145 42.5428 64.6145 40.8595C64.6145 39.1761 63.2498 37.8115 61.5665 37.8115C59.8832 37.8115 58.5186 39.1761 58.5186 40.8595C58.5186 42.5428 59.8832 43.9074 61.5665 43.9074Z" fill="#FF6584"/>
</svg>
