<svg width="23" height="22" viewBox="0 0 23 22" fill="none" xmlns="http://www.w3.org/2000/svg">
<path d="M23 10.9408L20.3962 8.04998L20.8039 4.17985L16.9965 3.37385L15.0544 0L11.4998 1.58865L11.02 10.9408L11.4998 20.2929L15.0544 21.8816L16.9965 18.5078L20.8039 17.7017L20.3962 13.8316L23 10.9408Z" fill="#4F45BC"/>
<path d="M7.94554 0L6.00346 3.37385L2.19607 4.17989L2.60375 8.04998L0 10.9408L2.60375 13.8316L2.19607 17.7017L6.00346 18.5078L7.94559 21.8816L11.5002 20.2929V1.58865L7.94554 0Z" fill="#4F45BC"/>
<path d="M16.3224 8.42268L15.3158 7.52417L11.5013 11.7977L11.0215 12.8598L11.5013 13.8241L16.3224 8.42268Z" fill="white"/>
<path d="M7.49215 9.92462L6.53809 10.8787L10.5494 14.8901L11.5009 13.8241V11.7978L10.4937 12.9261L7.49215 9.92462Z" fill="white"/>
</svg>
