<svg width="12" height="12" viewBox="0 0 12 12" fill="none" xmlns="http://www.w3.org/2000/svg">
<path d="M11.692 9.71176L2.28782 0.307606C1.87768 -0.102535 1.21274 -0.102535 0.803236 0.307606L0.307606 0.802467C-0.102535 1.21274 -0.102535 1.87768 0.307606 2.28718L9.71176 11.6913C10.122 12.1015 10.787 12.1015 11.1965 11.6913L11.6913 11.1965C12.1022 10.787 12.1022 10.1219 11.692 9.71176Z" fill="#DB604E"/>
<path d="M9.71176 0.308486L0.307606 9.71264C-0.102535 10.1228 -0.102535 10.7879 0.307606 11.1974L0.802467 11.6922C1.21274 12.1024 1.87768 12.1024 2.28718 11.6922L11.692 2.2887C12.1022 1.87856 12.1022 1.21362 11.692 0.804116L11.1971 0.309255C10.787 -0.101655 10.122 -0.101655 9.71176 0.308486Z" fill="#DB604E"/>
</svg>
